{
  "type": "minecraft:random_patch",
  "config": {
    "tries": 45,
    "xz_spread": 1,
    "y_spread": 0,
    "feature": {
      "feature": {
        "type": "random_selector",
        "config": {
          "features": [
            {
              "chance": 0.15,
              "feature": "mc-augmentor:sequoia/common/trunk_low",
              "placement": []
            },
            {
              "chance": 0.15,
              "feature": "mc-augmentor:sequoia/common/trunk_low_to_middle",
              "placement": []
            },
            {
              "chance": 0.15,
              "feature": "mc-augmentor:sequoia/common/trunk_middle_to_top",
              "placement": []
            },
            {
              "chance": 0.15,
              "feature": "mc-augmentor:sequoia/medium/trunk_top_and_foilage",
              "placement": []
            }
          ],
          "default": "mc-augmentor:sequoia/common/trunk_floor"
        }
      },
      "placement": []
    }
  }
}